…
The statement is also verified where a small part of the sample has more
than 5 children with income less than $ 10,000 and it can be observed
that most of the sample that has more than 5 children has income greater
than $ 75,000.

**Research quesion 2:** To answer the first part of the question, we
group the sample according to the variables “veteran3” and “educate”

``` r
brfss2013 %>% group_by(veteran3,educa) %>% summarise(count=n())
```

    ## `summarise()` has grouped output by 'veteran3'. You can override using the `.groups` argument.

    ## # A tibble: 21 x 3
    ## # Groups:   veteran3 [3]
    ##    veteran3 educa                                                        count
    ##    <fct>    <fct>                                                        <int>
    ##  1 Yes      Never attended school or only kindergarten                      31
    ##  2 Yes      Grades 1 through 8 (Elementary)                                929
    ##  3 Yes      Grades 9 though 11 (Some high school)                         2090
    ##  4 Yes      Grade 12 or GED (High school graduate)                       17403
    ##  5 Yes      College 1 year to 3 years (Some college or technical school) 18906
    ##  6 Yes      College 4 years or more (College graduate)                   21908
    ##  7 Yes      <NA>                                                           179
    ##  8 No       Never attended school or only kindergarten                     643
    ##  9 No       Grades 1 through 8 (Elementary)                              12448
    ## 10 No       Grades 9 though 11 (Some high school)                        26030
    ## # ... with 11 more rows
…
We observed that 21,908 veterans have been in college 4 years or more or
are college graduates.

In the same way, to observe the employment situation of veterans, we
group the sample according to the variables “veteran3” and “employ1”

``` r
brfss2013 %>% group_by(veteran3,employ1) %>% summarise(count=n())
```

    ## `summarise()` has grouped output by 'veteran3'. You can override using the `.groups` argument.

    ## # A tibble: 27 x 3
    ## # Groups:   veteran3 [3]
    ##    veteran3 employ1                           count
    ##    <fct>    <fct>                             <int>
    ##  1 Yes      Employed for wages                18559
    ##  2 Yes      Self-employed                      4417
    ##  3 Yes      Out of work for 1 year or more     1209
    ##  4 Yes      Out of work for less than 1 year   1025
    ##  5 Yes      A homemaker                         430
    ##  6 Yes      A student                           611
    ##  7 Yes      Retired                           31025
    ##  8 Yes      Unable to work                     3850
    ##  9 Yes      <NA>                                320
    ## 10 No       Employed for wages               183495
    ## # ... with 17 more rows
…
